%YAML 1.1
%TAG !u! tag:unity3d.com,2011:
--- !u!114 &11400000
MonoBehaviour:
  m_ObjectHideFlags: 0
  m_PrefabParentObject: {fileID: 0}
  m_PrefabInternal: {fileID: 0}
  m_GameObject: {fileID: 0}
  m_Enabled: 1
  m_EditorHideFlags: 0
  m_Script: {fileID: 11500000, guid: 9f44607bd270d4f4eaa8869ed9b5b85c, type: 3}
  m_Name: Tempest
  m_EditorClassIdentifier: 
  clip: {fileID: 8300000, guid: c996c7abc480a0340ac78e83807dc1c8, type: 3}
  phonemeData:
  - phoneme: 8
    time: .0434283055
    intensity: 1
    sustain: 0
  - phoneme: 1
    time: .0564567894
    intensity: 1
    sustain: 0
  - phoneme: 0
    time: .0796185583
    intensity: 1
    sustain: 0
  - phoneme: 4
    time: .095542267
    intensity: 1
    sustain: 0
  - phoneme: 2
    time: .126066804
    intensity: 1
    sustain: 0
  - phoneme: 4
    time: .14690873
    intensity: 1
    sustain: 0
  - phoneme: 1
    time: .170817986
    intensity: 1
    sustain: 0
  - phoneme: 2
    time: .188189298
    intensity: 1
    sustain: 0
  - phoneme: 5
    time: .202948451
    intensity: 1
    sustain: 0
  - phoneme: 0
    time: .226282492
    intensity: 1
    sustain: 0
  - phoneme: 4
    time: .242620766
    intensity: 1
    sustain: 0
  - phoneme: 1
    time: .280297071
    intensity: 1
    sustain: 0
  - phoneme: 7
    time: .305901051
    intensity: 1
    sustain: 0
  - phoneme: 4
    time: .321824759
    intensity: 1
    sustain: 0
  - phoneme: 0
    time: .345937997
    intensity: 1
    sustain: 0
  - phoneme: 7
    time: .359958768
    intensity: 1
    sustain: 0
  - phoneme: 0
    time: .371995002
    intensity: 1
    sustain: 0
  - phoneme: 4
    time: .393749952
    intensity: 1
    sustain: 0
  - phoneme: 3
    time: .405330807
    intensity: 1
    sustain: 0
  - phoneme: 4
    time: .419806927
    intensity: 1
    sustain: 0
  - phoneme: 0
    time: .52982533
    intensity: 1
    sustain: 0
  - phoneme: 4
    time: .541861475
    intensity: 1
    sustain: 0
  - phoneme: 0
    time: .560843647
    intensity: 1
    sustain: 0
  - phoneme: 6
    time: .572961509
    intensity: 1
    sustain: 0
  - phoneme: 6
    time: .607996225
    intensity: 1
    sustain: 0
  - phoneme: 6
    time: .628262818
    intensity: 1
    sustain: 0
  - phoneme: 0
    time: .642738879
    intensity: 1
    sustain: 0
  - phoneme: 5
    time: .66399771
    intensity: 1
    sustain: 0
  - phoneme: 4
    time: .719462156
    intensity: 1
    sustain: 0
  - phoneme: 4
    time: .737248063
    intensity: 1
    sustain: 0
  - phoneme: 3
    time: .750772655
    intensity: 1
    sustain: 0
  - phoneme: 8
    time: .766792357
    intensity: 1
    sustain: 0
  - phoneme: 4
    time: .781709433
    intensity: 1
    sustain: 0
  - phoneme: 4
    time: .793290317
    intensity: 1
    sustain: 0
  - phoneme: 1
    time: .805781841
    intensity: 1
    sustain: 0
  - phoneme: 4
    time: .822242498
    intensity: 1
    sustain: 0
  - phoneme: 8
    time: .839613855
    intensity: 1
    sustain: 0
  - phoneme: 0
    time: .852642298
    intensity: 1
    sustain: 0
  - phoneme: 4
    time: .86343497
    intensity: 1
    sustain: 0
  - phoneme: 1
    time: .920603096
    intensity: 1
    sustain: 0
  - phoneme: 7
    time: .967547059
    intensity: 1
    sustain: 0
  - phoneme: 4
    time: .258687913
    intensity: 1
    sustain: 0
  - phoneme: 0
    time: .584110618
    intensity: 1
    sustain: 0
  - phoneme: 4
    time: .595546782
    intensity: 1
    sustain: 0
  - phoneme: 0
    time: .710631788
    intensity: 1
    sustain: 0
  - phoneme: 6
    time: .899979174
    intensity: 1
    sustain: 0
  - phoneme: 4
    time: .943841755
    intensity: 1
    sustain: 0
  - phoneme: 0
    time: .874356508
    intensity: 1
    sustain: 0
  - phoneme: 4
    time: .886661172
    intensity: 1
    sustain: 0
  emotionData:
  - emotion: Eyebrows Up
    startTime: .053165447
    endTime: .404354811
    blendInTime: .0589914396
    blendOutTime: -.0951474756
    blendToMarker: 0
    blendFromMarker: 0
    customBlendIn: 1
    customBlendOut: 1
    intensity: 1
    invalid: 0
  - emotion: Eyebrows Up
    startTime: .588488519
    endTime: .976193666
    blendInTime: .117202282
    blendOutTime: -.160109416
    blendToMarker: 0
    blendFromMarker: 0
    customBlendIn: 1
    customBlendOut: 1
    intensity: 1
    invalid: 0
  gestureData: []
  version: 1.11000001
  length: 6.90793753
  transcript: 
